@00000000 00000013
@00000004 00000013
@00000008 00000013
@0000000C 00000013
@00000010 00000013
@00000014 00000013
@00000018 00000013
@0000001C 00000013
@00000020 00000013
@00000024 00000013
@00000028 00000013
@0000002C 00000013
@00000030 00000013
@00000034 00000013
@00000038 00000013
@0000003C 00000013
@00000040 00000013
@00000044 00000013
@00000048 00000013
@0000004C 00000013
@00000050 00000013
@00000054 00000013
@00000058 00000013
@0000005C 00000013
@00000060 00000013
@00000064 00000013
@00000068 00000013
@0000006C 00000013
@00000070 00000013
@00000074 00000013
@00000078 00000013
@0000007C 00000013
@00000080 0080006F
@00000084 00008067
@00000088 00000093
@0000008C 00008113
@00000090 00008193
@00000094 00008213
@00000098 00008293
@0000009C 00008313
@000000A0 00008393
@000000A4 00008413
@000000A8 00008493
@000000AC 00008513
@000000B0 00008593
@000000B4 00008613
@000000B8 00008693
@000000BC 00008713
@000000C0 00008793
@000000C4 00008813
@000000C8 00008893
@000000CC 00008913
@000000D0 00008993
@000000D4 00008A13
@000000D8 00008A93
@000000DC 00008B13
@000000E0 00008B93
@000000E4 00008C13
@000000E8 00008C93
@000000EC 00008D13
@000000F0 00008D93
@000000F4 00008E13
@000000F8 00008E93
@000000FC 00008F13
@00000100 00008F93
@00000104 00001117
@00000108 DFC10113
@0000010C 00000D17
@00000110 6F4D0D13
@00000114 00000D97
@00000118 6ECD8D93
@0000011C 01BD5863
@00000120 000D2023
@00000124 004D0D13
@00000128 FFADDCE3
@0000012C 124000EF
@00000130 00000513
@00000134 00000593
@00000138 014000EF
@0000013C 00000000
@00000140 00000000
@00000144 00000000
@00000148 00000000
@0000014C FF010113
@00000150 00812623
@00000154 01010413
@00000158 00001EB7
@0000015C 00100F93
@00000160 FB0EA703
@00000164 FE070EE3
@00000168 FA0EA823
@0000016C F00E8613
@00000170 02862303
@00000174 00010293
@00000178 00231793
@0000017C 00F78793
@00000180 FF07F793
@00000184 40F10133
@00000188 00010893
@0000018C 0A605463
@00000190 00088693
@00000194 00000793
@00000198 00279713
@0000019C 00E60733
@000001A0 00072703
@000001A4 00468693
@000001A8 00178793
@000001AC FEE6AE23
@000001B0 FEF314E3
@000001B4 FFF30F13
@000001B8 000F0693
@000001BC 00000593
@000001C0 040F0863
@000001C4 00000E13
@000001C8 00000793
@000001CC 00279713
@000001D0 00470613
@000001D4 00C88633
@000001D8 00E88733
@000001DC 00072503
@000001E0 00062803
@000001E4 04A85E63
@000001E8 01072023
@000001EC 00A62023
@000001F0 00178793
@000001F4 00100E13
@000001F8 FCD7CAE3
@000001FC 00158593
@00000200 40B306B3
@00000204 FFF68693
@00000208 01E5D463
@0000020C FAD04CE3
@00000210 00000793
@00000214 F00E8613
@00000218 0008A683
@0000021C 00279713
@00000220 00E60733
@00000224 00D72023
@00000228 00178793
@0000022C 00488893
@00000230 FE67C4E3
@00000234 FBFEAA23
@00000238 00028113
@0000023C F25FF06F
@00000240 00178793
@00000244 F8D7C4E3
@00000248 FA0E1AE3
@0000024C FC5FF06F
@00000250 FF010113
@00000254 00812423
@00000258 01212023
@0000025C 00000417
@00000260 5A440413
@00000264 00000917
@00000268 59C90913
@0000026C 40890933
@00000270 00112623
@00000274 00912223
@00000278 40295913
@0000027C 00090E63
@00000280 00000493
@00000284 00042783
@00000288 00148493
@0000028C 00440413
@00000290 000780E7
@00000294 FE9918E3
@00000298 00000417
@0000029C 56840413
@000002A0 00000917
@000002A4 56090913
@000002A8 40890933
@000002AC 40295913
@000002B0 DD5FF0EF
@000002B4 00090E63
@000002B8 00000493
@000002BC 00042783
@000002C0 00148493
@000002C4 00440413
@000002C8 000780E7
@000002CC FE9918E3
@000002D0 00C12083
@000002D4 00812403
@000002D8 00412483
@000002DC 00012903
@000002E0 01010113
@000002E4 00008067
