@00100000 00000040
@00100004 00000022
@00100008 00000019
@0010000C 0000000C
@00100010 00000016
@00100014 0000000B
@00100018 0000005A
@0010001C 533D3D0A
@00100020 74726174
@00100024 62754220
@00100028 532D656C
@0010002C 2074726F
@00100030 23205825
@00100034 0A3D3D20
@00100038 00000000
@0010003C 5D58255B
@00100040 0000002C
@00100044 5D58255B
@00100048 2D2D2D0A
@0010004C 2D2D2D2D
@00100050 2D2D2D2D
@00100054 0A2D2D2D
@00100058 00000000
@0010005C 253D6370
@00100060 20202058
@00100064 20202020
@00100068 432F2F20
@0010006C 73656D20
@00100070 65676173
@00100074 6F50203A
@00100078 6E696C6C
@0010007C 00000A67
@00100080 523D3D0A
@00100084 6C757365
@00100088 42207374
@0010008C 6C626275
@00100090 6F532D65
@00100094 3D207472
@00100098 000A203D
@0010009C 5D58255B
@001000A0 2D2D2D0A
@001000A4 2D2D2D2D
@001000A8 2D2D2D2D
@001000AC 002D2D2D
@001000B0 2A2A2A0A
@001000B4 696E6966
@001000B8 2A2A6873
@001000BC 00000A2A
@001000C0 2A2A2A0A
@001000C4 54534554
@001000C8 20474E49
@001000CC 62627542
@001000D0 532D656C
@001000D4 2A74726F
@001000D8 000A2A2A
@001000DC 656C6C49
@001000E0 206C6167
@001000E4 74736E69
@001000E8 74637572
@001000EC 206E6F69
@001000F0 6F636E65
@001000F4 65746E75
@001000F8 20646572
@001000FC 61207461
@00100100 65726464
@00100104 30207373
@00100108 38302578
@0010010C 25203A58
@00100110 00000A58
@00100114 00000CF0
@00100118 00000C78
@0010011C 00000C78
@00100120 00000CE4
@00100124 00000C78
@00100128 00000C78
@0010012C 00000C78
@00100130 00000C78
@00100134 00000C78
@00100138 00000C78
@0010013C 00000C78
@00100140 00000CD8
@00100144 00000C78
@00100148 00000CCC
@0010014C 00000C78
@00100150 00000C78
@00100154 00000C5C
@00100158 00001400
@0010015C 00000F84
@00100160 00000F84
@00100164 00000F84
@00100168 00000F84
@0010016C 00000F84
@00100170 00000F84
@00100174 00000F84
@00100178 00000F84
@0010017C 00000F84
@00100180 00000F84
@00100184 00000F84
@00100188 00000F84
@0010018C 00000F84
@00100190 00000F84
@00100194 00000F84
@00100198 00000F84
@0010019C 00000F84
@001001A0 00000F84
@001001A4 00000F84
@001001A8 00000F84
@001001AC 00000F84
@001001B0 00000F84
@001001B4 00000DAC
@001001B8 00000F84
@001001BC 00000F84
@001001C0 00000F84
@001001C4 00000F84
@001001C8 00000F84
@001001CC 00000F84
@001001D0 00000F84
@001001D4 00000F84
@001001D8 000011A4
@001001DC 00000F84
@001001E0 00000F3C
@001001E4 00001410
@001001E8 00000F84
@001001EC 00000F84
@001001F0 00000F84
@001001F4 00000F84
@001001F8 00001410
@001001FC 00000F84
@00100200 00000F84
@00100204 00000F84
@00100208 00000F84
@0010020C 00000F84
@00100210 00000F30
@00100214 00000EFC
@00100218 00000F84
@0010021C 00000F84
@00100220 00000DEC
@00100224 00000F84
@00100228 00000DE0
@0010022C 00000F84
@00100230 00000F84
@00100234 00001198
@00100238 00001004
@0010023C 00000F8C
@00100240 00000F8C
@00100244 00000F8C
@00100248 00000F8C
@0010024C 00000F8C
@00100250 00000F8C
@00100254 00000F8C
@00100258 00000F8C
@0010025C 00000F8C
@00100260 00000F8C
@00100264 00000F8C
@00100268 00000F8C
@0010026C 00000F8C
@00100270 00000F8C
@00100274 00000F8C
@00100278 00000F8C
@0010027C 00000F8C
@00100280 00000F8C
@00100284 00000F8C
@00100288 00000F8C
@0010028C 00000F8C
@00100290 00000F8C
@00100294 00000DB0
@00100298 00000F8C
@0010029C 00000F8C
@001002A0 00000F8C
@001002A4 00000F8C
@001002A8 00000F8C
@001002AC 00000F8C
@001002B0 00000F8C
@001002B4 00000F8C
@001002B8 00001168
@001002BC 00000F8C
@001002C0 00000F40
@001002C4 00001180
@001002C8 00000F8C
@001002CC 00000F8C
@001002D0 00000F8C
@001002D4 00000F8C
@001002D8 00001180
@001002DC 00000F8C
@001002E0 00000F8C
@001002E4 00000F8C
@001002E8 00000F8C
@001002EC 00000F8C
@001002F0 00000F34
@001002F4 00000F00
@001002F8 00000F8C
@001002FC 00000F8C
@00100300 00000DF0
@00100304 00000F8C
@00100308 00000DE4
@0010030C 00000F8C
@00100310 00000F8C
@00100314 00000DB4
@00100318 73797024
@0010031C 6C6C6568
@00100320 69757120
@00100324 70704174
@00100328 000A2928
@0010032C 4C554E3C
@00100330 00003E4C
@00100334 33323130
@00100338 37363534
@0010033C 62613938
@00100340 66656463
@00100344 6A696867
@00100348 6E6D6C6B
@0010034C 7271706F
@00100350 76757473
@00100354 7A797877
@00100358 00000000
@0010035C 33323130
@00100360 37363534
@00100364 42413938
@00100368 46454443
@0010036C 4A494847
@00100370 4E4D4C4B
@00100374 5251504F
@00100378 56555453
@0010037C 5A595857
@00100380 00000000
