@00000000 00000013
@00000004 00000013
@00000008 00000013
@0000000C 00000013
@00000010 00000013
@00000014 00000013
@00000018 00000013
@0000001C 00000013
@00000020 00000013
@00000024 00000013
@00000028 00000013
@0000002C 00000013
@00000030 00000013
@00000034 00000013
@00000038 00000013
@0000003C 00000013
@00000040 00000013
@00000044 00000013
@00000048 00000013
@0000004C 00000013
@00000050 00000013
@00000054 00000013
@00000058 00000013
@0000005C 00000013
@00000060 00000013
@00000064 00000013
@00000068 00000013
@0000006C 00000013
@00000070 00000013
@00000074 00000013
@00000078 00000013
@0000007C 00000013
@00000080 0080006F
@00000084 00008067
@00000088 00000093
@0000008C 00008113
@00000090 00008193
@00000094 00008213
@00000098 00008293
@0000009C 00008313
@000000A0 00008393
@000000A4 00008413
@000000A8 00008493
@000000AC 00008513
@000000B0 00008593
@000000B4 00008613
@000000B8 00008693
@000000BC 00008713
@000000C0 00008793
@000000C4 00008813
@000000C8 00008893
@000000CC 00008913
@000000D0 00008993
@000000D4 00008A13
@000000D8 00008A93
@000000DC 00008B13
@000000E0 00008B93
@000000E4 00008C13
@000000E8 00008C93
@000000EC 00008D13
@000000F0 00008D93
@000000F4 00008E13
@000000F8 00008E93
@000000FC 00008F13
@00000100 00008F93
@00000104 00001117
@00000108 DFC10113
@0000010C 00000D17
@00000110 6F4D0D13
@00000114 00000D97
@00000118 6ECD8D93
@0000011C 01BD5863
@00000120 000D2023
@00000124 004D0D13
@00000128 FFADDCE3
@0000012C 1B8000EF
@00000130 00000513
@00000134 00000593
@00000138 0C8000EF
@0000013C 06054063
@00000140 0605C663
@00000144 00058613
@00000148 00050593
@0000014C FFF00513
@00000150 02060C63
@00000154 00100693
@00000158 00B67A63
@0000015C 00C05863
@00000160 00161613
@00000164 00169693
@00000168 FEB66AE3
@0000016C 00000513
@00000170 00C5E663
@00000174 40C585B3
@00000178 00D56533
@0000017C 0016D693
@00000180 00165613
@00000184 FE0696E3
@00000188 00008067
@0000018C 00008293
@00000190 FB5FF0EF
@00000194 00058513
@00000198 00028067
@0000019C 40A00533
@000001A0 0005D863
@000001A4 40B005B3
@000001A8 F9DFF06F
@000001AC 40B005B3
@000001B0 00008293
@000001B4 F91FF0EF
@000001B8 40A00533
@000001BC 00028067
@000001C0 00008293
@000001C4 0005CA63
@000001C8 00054C63
@000001CC F79FF0EF
@000001D0 00058513
@000001D4 00028067
@000001D8 40B005B3
@000001DC FE0558E3
@000001E0 40A00533
@000001E4 F61FF0EF
@000001E8 40B00533
@000001EC 00028067
@000001F0 00000000
@000001F4 00000000
@000001F8 00000000
@000001FC 00000000
@00000200 FD010113
@00000204 02812423
@00000208 00001437
@0000020C 01412C23
@00000210 01512A23
@00000214 01612823
@00000218 02112623
@0000021C 02912223
@00000220 03212023
@00000224 01312E23
@00000228 01712623
@0000022C 01812423
@00000230 01912223
@00000234 F0040A13
@00000238 00500B13
@0000023C 00100A93
@00000240 FB042703
@00000244 FE070EE3
@00000248 FA042823
@0000024C 000A2B83
@00000250 057B5063
@00000254 401BDC93
@00000258 00000993
@0000025C 00200913
@00000260 00090593
@00000264 000B8513
@00000268 F59FF0EF
@0000026C 02050663
@00000270 00190913
@00000274 FF9946E3
@00000278 00A98793
@0000027C 00279793
@00000280 00FA07B3
@00000284 0007A023
@00000288 FB542A23
@0000028C FB5FF06F
@00000290 00A00793
@00000294 FE9FF06F
@00000298 40195C13
@0000029C 035C0863
@000002A0 00197793
@000002A4 FC0786E3
@000002A8 001C0C13
@000002AC 00200493
@000002B0 00C0006F
@000002B4 F0DFF0EF
@000002B8 FA050CE3
@000002BC 00148493
@000002C0 00090513
@000002C4 00048593
@000002C8 FE9C16E3
@000002CC 00A98793
@000002D0 00279793
@000002D4 00FA07B3
@000002D8 0127A023
@000002DC 00198993
@000002E0 F91FF06F
@000002E4 FF010113
@000002E8 00812423
@000002EC 01212023
@000002F0 00000417
@000002F4 51040413
@000002F8 00000917
@000002FC 50890913
@00000300 40890933
@00000304 00112623
@00000308 00912223
@0000030C 40295913
@00000310 00090E63
@00000314 00000493
@00000318 00042783
@0000031C 00148493
@00000320 00440413
@00000324 000780E7
@00000328 FE9918E3
@0000032C 00000417
@00000330 4D440413
@00000334 00000917
@00000338 4CC90913
@0000033C 40890933
@00000340 40295913
@00000344 D41FF0EF
@00000348 00090E63
@0000034C 00000493
@00000350 00042783
@00000354 00148493
@00000358 00440413
@0000035C 000780E7
@00000360 FE9918E3
@00000364 00C12083
@00000368 00812403
@0000036C 00412483
@00000370 00012903
@00000374 01010113
@00000378 00008067
