00000000_00000013
00000004_00000013
00000008_00000013
0000000C_00000013
00000010_00000013
00000014_00000013
00000018_00000013
0000001C_00000013
00000020_00000013
00000024_00000013
00000028_00000013
0000002C_00000013
00000030_00000013
00000034_00000013
00000038_00000013
0000003C_00000013
00000040_00000013
00000044_00000013
00000048_00000013
0000004C_00000013
00000050_00000013
00000054_00000013
00000058_00000013
0000005C_00000013
00000060_00000013
00000064_00000013
00000068_00000013
0000006C_00000013
00000070_00000013
00000074_00000013
00000078_00000013
0000007C_00000013
00000080_0080006F
00000084_00008067
00000088_00000093
0000008C_00008113
00000090_00008193
00000094_00008213
00000098_00008293
0000009C_00008313
000000A0_00008393
000000A4_00008413
000000A8_00008493
000000AC_00008513
000000B0_00008593
000000B4_00008613
000000B8_00008693
000000BC_00008713
000000C0_00008793
000000C4_00008813
000000C8_00008893
000000CC_00008913
000000D0_00008993
000000D4_00008A13
000000D8_00008A93
000000DC_00008B13
000000E0_00008B93
000000E4_00008C13
000000E8_00008C93
000000EC_00008D13
000000F0_00008D93
000000F4_00008E13
000000F8_00008E93
000000FC_00008F13
00000100_00008F93
00000104_00001117
00000108_DFC10113
0000010C_00000D17
00000110_6F4D0D13
00000114_00000D97
00000118_6ECD8D93
0000011C_01BD5863
00000120_000D2023
00000124_004D0D13
00000128_FFADDCE3
0000012C_1B8000EF
00000130_00000513
00000134_00000593
00000138_0C8000EF
0000013C_06054063
00000140_0605C663
00000144_00058613
00000148_00050593
0000014C_FFF00513
00000150_02060C63
00000154_00100693
00000158_00B67A63
0000015C_00C05863
00000160_00161613
00000164_00169693
00000168_FEB66AE3
0000016C_00000513
00000170_00C5E663
00000174_40C585B3
00000178_00D56533
0000017C_0016D693
00000180_00165613
00000184_FE0696E3
00000188_00008067
0000018C_00008293
00000190_FB5FF0EF
00000194_00058513
00000198_00028067
0000019C_40A00533
000001A0_0005D863
000001A4_40B005B3
000001A8_F9DFF06F
000001AC_40B005B3
000001B0_00008293
000001B4_F91FF0EF
000001B8_40A00533
000001BC_00028067
000001C0_00008293
000001C4_0005CA63
000001C8_00054C63
000001CC_F79FF0EF
000001D0_00058513
000001D4_00028067
000001D8_40B005B3
000001DC_FE0558E3
000001E0_40A00533
000001E4_F61FF0EF
000001E8_40B00533
000001EC_00028067
000001F0_00000000
000001F4_00000000
000001F8_00000000
000001FC_00000000
00000200_FD010113
00000204_02812423
00000208_00001437
0000020C_01412C23
00000210_01512A23
00000214_01612823
00000218_02112623
0000021C_02912223
00000220_03212023
00000224_01312E23
00000228_01712623
0000022C_01812423
00000230_01912223
00000234_F0040A13
00000238_00500B13
0000023C_00100A93
00000240_FB042703
00000244_FE070EE3
00000248_FA042823
0000024C_000A2B83
00000250_057B5063
00000254_401BDC93
00000258_00000993
0000025C_00200913
00000260_00090593
00000264_000B8513
00000268_F59FF0EF
0000026C_02050663
00000270_00190913
00000274_FF9946E3
00000278_00A98793
0000027C_00279793
00000280_00FA07B3
00000284_0007A023
00000288_FB542A23
0000028C_FB5FF06F
00000290_00A00793
00000294_FE9FF06F
00000298_40195C13
0000029C_035C0863
000002A0_00197793
000002A4_FC0786E3
000002A8_001C0C13
000002AC_00200493
000002B0_00C0006F
000002B4_F0DFF0EF
000002B8_FA050CE3
000002BC_00148493
000002C0_00090513
000002C4_00048593
000002C8_FE9C16E3
000002CC_00A98793
000002D0_00279793
000002D4_00FA07B3
000002D8_0127A023
000002DC_00198993
000002E0_F91FF06F
000002E4_FF010113
000002E8_00812423
000002EC_01212023
000002F0_00000417
000002F4_51040413
000002F8_00000917
000002FC_50890913
00000300_40890933
00000304_00112623
00000308_00912223
0000030C_40295913
00000310_00090E63
00000314_00000493
00000318_00042783
0000031C_00148493
00000320_00440413
00000324_000780E7
00000328_FE9918E3
0000032C_00000417
00000330_4D440413
00000334_00000917
00000338_4CC90913
0000033C_40890933
00000340_40295913
00000344_D41FF0EF
00000348_00090E63
0000034C_00000493
00000350_00042783
00000354_00148493
00000358_00440413
0000035C_000780E7
00000360_FE9918E3
00000364_00C12083
00000368_00812403
0000036C_00412483
00000370_00012903
00000374_01010113
00000378_00008067
