DEPTH = 227;         -- The size of memory in words
WIDTH = 32;          -- The size of data in bits
ADDRESS_RADIX = HEX; -- The radix for address values
DATA_RADIX = HEX;    -- The radix for data v
CONTENT              -- start of (address : data pairs)

BEGIN
00000000: 200A0A0A;
00000001: 2A2A2A2A;
00000002: 4C454820;
00000003: 57204F4C;
00000004: 444C524F;
00000005: 54202C20;
00000006: 49545345;
00000007: 4720474E;
00000008: 2A205050;
00000009: 202A2A2A;
0000000A: 000A0A0A;
0000000B: 43200A0A;
0000000C: 6F727020;
0000000D: 6D617267;
0000000E: 67736D20;
0000000F: 7257203A;
00000010: 6E697469;
00000011: 78252067;
00000012: 206F7420;
00000013: 5F707067;
00000014: 20676572;
00000015: 61207825;
00000016: 64612074;
00000017: 73657264;
00000018: 78252073;
00000019: 00000A0A;
0000001A: 43200A0A;
0000001B: 6F727020;
0000001C: 6D617267;
0000001D: 67736D20;
0000001E: 7257203A;
0000001F: 6E697469;
00000020: 78252067;
00000021: 206F7420;
00000022: 5F707067;
00000023: 20676572;
00000024: 61207825;
00000025: 64612074;
00000026: 73657264;
00000027: 78252073;
00000028: 000A0A0A;
00000029: 43200A0A;
0000002A: 6F727020;
0000002B: 6D617267;
0000002C: 67736D20;
0000002D: 6552203A;
0000002E: 6E696461;
0000002F: 64252067;
00000030: 6F726620;
00000031: 7067206D;
00000032: 65725F70;
00000033: 78252067;
00000034: 20746120;
00000035: 72646461;
00000036: 20737365;
00000037: 0A0A7825;
00000038: 00000000;
00000039: 73797024;
0000003A: 6C6C6568;
0000003B: 69757120;
0000003C: 0A292874;
0000003D: 00000000;
0000003E: 656C6C49;
0000003F: 206C6167;
00000040: 74736E69;
00000041: 74637572;
00000042: 206E6F69;
00000043: 6F636E65;
00000044: 65746E75;
00000045: 20646572;
00000046: 61207461;
00000047: 65726464;
00000048: 30207373;
00000049: 38302578;
0000004A: 25203A58;
0000004B: 00000A58;
0000004C: 00000BE4;
0000004D: 00000B6C;
0000004E: 00000B6C;
0000004F: 00000BD8;
00000050: 00000B6C;
00000051: 00000B6C;
00000052: 00000B6C;
00000053: 00000B6C;
00000054: 00000B6C;
00000055: 00000B6C;
00000056: 00000B6C;
00000057: 00000BCC;
00000058: 00000B6C;
00000059: 00000BC0;
0000005A: 00000B6C;
0000005B: 00000B6C;
0000005C: 00000B50;
0000005D: 00000EF4;
0000005E: 00000C20;
0000005F: 00000C20;
00000060: 00000C20;
00000061: 00000C20;
00000062: 00000C20;
00000063: 00000C20;
00000064: 00000C20;
00000065: 00000C20;
00000066: 00000C20;
00000067: 00000C20;
00000068: 00000C20;
00000069: 00000C20;
0000006A: 00000C20;
0000006B: 00000C20;
0000006C: 00000C20;
0000006D: 00000C20;
0000006E: 00000C20;
0000006F: 00000C20;
00000070: 00000C20;
00000071: 00000C20;
00000072: 00000C20;
00000073: 00000C20;
00000074: 00000D20;
00000075: 00000C20;
00000076: 00000C20;
00000077: 00000C20;
00000078: 00000C20;
00000079: 00000C20;
0000007A: 00000C20;
0000007B: 00000C20;
0000007C: 00000C20;
0000007D: 00001458;
0000007E: 00000C20;
0000007F: 000013F4;
00000080: 00001434;
00000081: 00000C20;
00000082: 00000C20;
00000083: 00000C20;
00000084: 00000C20;
00000085: 00001434;
00000086: 00000C20;
00000087: 00000C20;
00000088: 00000C20;
00000089: 00000C20;
0000008A: 00000C20;
0000008B: 00001468;
0000008C: 00001210;
0000008D: 00000C20;
0000008E: 00000C20;
0000008F: 00001244;
00000090: 00000C20;
00000091: 00001204;
00000092: 00000C20;
00000093: 00000C20;
00000094: 0000144C;
00000095: 00000D4C;
00000096: 00000C28;
00000097: 00000C28;
00000098: 00000C28;
00000099: 00000C28;
0000009A: 00000C28;
0000009B: 00000C28;
0000009C: 00000C28;
0000009D: 00000C28;
0000009E: 00000C28;
0000009F: 00000C28;
000000A0: 00000C28;
000000A1: 00000C28;
000000A2: 00000C28;
000000A3: 00000C28;
000000A4: 00000C28;
000000A5: 00000C28;
000000A6: 00000C28;
000000A7: 00000C28;
000000A8: 00000C28;
000000A9: 00000C28;
000000AA: 00000C28;
000000AB: 00000C28;
000000AC: 00000D24;
000000AD: 00000C28;
000000AE: 00000C28;
000000AF: 00000C28;
000000B0: 00000C28;
000000B1: 00000C28;
000000B2: 00000C28;
000000B3: 00000C28;
000000B4: 00000C28;
000000B5: 00000D50;
000000B6: 00000C28;
000000B7: 000013F8;
000000B8: 00001438;
000000B9: 00000C28;
000000BA: 00000C28;
000000BB: 00000C28;
000000BC: 00000C28;
000000BD: 00001438;
000000BE: 00000C28;
000000BF: 00000C28;
000000C0: 00000C28;
000000C1: 00000C28;
000000C2: 00000C28;
000000C3: 00001444;
000000C4: 00001214;
000000C5: 00000C28;
000000C6: 00000C28;
000000C7: 00001248;
000000C8: 00000C28;
000000C9: 00001208;
000000CA: 00000C28;
000000CB: 00000C28;
000000CC: 00000D28;
000000CD: 4C554E3C;
000000CE: 00003E4C;
000000CF: 33323130;
000000D0: 37363534;
000000D1: 62613938;
000000D2: 66656463;
000000D3: 6A696867;
000000D4: 6E6D6C6B;
000000D5: 7271706F;
000000D6: 76757473;
000000D7: 7A797877;
000000D8: 00000000;
000000D9: 33323130;
000000DA: 37363534;
000000DB: 42413938;
000000DC: 46454443;
000000DD: 4A494847;
000000DE: 4E4D4C4B;
000000DF: 5251504F;
000000E0: 56555453;
000000E1: 5A595857;
000000E2: 00000000;

END;
