@00100000 200A0A0A
@00100004 2A2A2A2A
@00100008 4C454820
@0010000C 57204F4C
@00100010 444C524F
@00100014 54202C20
@00100018 49545345
@0010001C 4720474E
@00100020 2A205050
@00100024 202A2A2A
@00100028 000A0A0A
@0010002C 43200A0A
@00100030 6F727020
@00100034 6D617267
@00100038 67736D20
@0010003C 7257203A
@00100040 6E697469
@00100044 78252067
@00100048 206F7420
@0010004C 5F707067
@00100050 20676572
@00100054 61207825
@00100058 64612074
@0010005C 73657264
@00100060 78252073
@00100064 00000A0A
@00100068 43200A0A
@0010006C 6F727020
@00100070 6D617267
@00100074 67736D20
@00100078 7257203A
@0010007C 6E697469
@00100080 78252067
@00100084 206F7420
@00100088 5F707067
@0010008C 20676572
@00100090 61207825
@00100094 64612074
@00100098 73657264
@0010009C 78252073
@001000A0 000A0A0A
@001000A4 43200A0A
@001000A8 6F727020
@001000AC 6D617267
@001000B0 67736D20
@001000B4 6552203A
@001000B8 6E696461
@001000BC 64252067
@001000C0 6F726620
@001000C4 7067206D
@001000C8 65725F70
@001000CC 78252067
@001000D0 20746120
@001000D4 72646461
@001000D8 20737365
@001000DC 0A0A7825
@001000E0 00000000
@001000E4 73797024
@001000E8 6C6C6568
@001000EC 69757120
@001000F0 0A292874
@001000F4 00000000
@001000F8 656C6C49
@001000FC 206C6167
@00100100 74736E69
@00100104 74637572
@00100108 206E6F69
@0010010C 6F636E65
@00100110 65746E75
@00100114 20646572
@00100118 61207461
@0010011C 65726464
@00100120 30207373
@00100124 38302578
@00100128 25203A58
@0010012C 00000A58
@00100130 00000BE4
@00100134 00000B6C
@00100138 00000B6C
@0010013C 00000BD8
@00100140 00000B6C
@00100144 00000B6C
@00100148 00000B6C
@0010014C 00000B6C
@00100150 00000B6C
@00100154 00000B6C
@00100158 00000B6C
@0010015C 00000BCC
@00100160 00000B6C
@00100164 00000BC0
@00100168 00000B6C
@0010016C 00000B6C
@00100170 00000B50
@00100174 00000EF4
@00100178 00000C20
@0010017C 00000C20
@00100180 00000C20
@00100184 00000C20
@00100188 00000C20
@0010018C 00000C20
@00100190 00000C20
@00100194 00000C20
@00100198 00000C20
@0010019C 00000C20
@001001A0 00000C20
@001001A4 00000C20
@001001A8 00000C20
@001001AC 00000C20
@001001B0 00000C20
@001001B4 00000C20
@001001B8 00000C20
@001001BC 00000C20
@001001C0 00000C20
@001001C4 00000C20
@001001C8 00000C20
@001001CC 00000C20
@001001D0 00000D20
@001001D4 00000C20
@001001D8 00000C20
@001001DC 00000C20
@001001E0 00000C20
@001001E4 00000C20
@001001E8 00000C20
@001001EC 00000C20
@001001F0 00000C20
@001001F4 00001458
@001001F8 00000C20
@001001FC 000013F4
@00100200 00001434
@00100204 00000C20
@00100208 00000C20
@0010020C 00000C20
@00100210 00000C20
@00100214 00001434
@00100218 00000C20
@0010021C 00000C20
@00100220 00000C20
@00100224 00000C20
@00100228 00000C20
@0010022C 00001468
@00100230 00001210
@00100234 00000C20
@00100238 00000C20
@0010023C 00001244
@00100240 00000C20
@00100244 00001204
@00100248 00000C20
@0010024C 00000C20
@00100250 0000144C
@00100254 00000D4C
@00100258 00000C28
@0010025C 00000C28
@00100260 00000C28
@00100264 00000C28
@00100268 00000C28
@0010026C 00000C28
@00100270 00000C28
@00100274 00000C28
@00100278 00000C28
@0010027C 00000C28
@00100280 00000C28
@00100284 00000C28
@00100288 00000C28
@0010028C 00000C28
@00100290 00000C28
@00100294 00000C28
@00100298 00000C28
@0010029C 00000C28
@001002A0 00000C28
@001002A4 00000C28
@001002A8 00000C28
@001002AC 00000C28
@001002B0 00000D24
@001002B4 00000C28
@001002B8 00000C28
@001002BC 00000C28
@001002C0 00000C28
@001002C4 00000C28
@001002C8 00000C28
@001002CC 00000C28
@001002D0 00000C28
@001002D4 00000D50
@001002D8 00000C28
@001002DC 000013F8
@001002E0 00001438
@001002E4 00000C28
@001002E8 00000C28
@001002EC 00000C28
@001002F0 00000C28
@001002F4 00001438
@001002F8 00000C28
@001002FC 00000C28
@00100300 00000C28
@00100304 00000C28
@00100308 00000C28
@0010030C 00001444
@00100310 00001214
@00100314 00000C28
@00100318 00000C28
@0010031C 00001248
@00100320 00000C28
@00100324 00001208
@00100328 00000C28
@0010032C 00000C28
@00100330 00000D28
@00100334 4C554E3C
@00100338 00003E4C
@0010033C 33323130
@00100340 37363534
@00100344 62613938
@00100348 66656463
@0010034C 6A696867
@00100350 6E6D6C6B
@00100354 7271706F
@00100358 76757473
@0010035C 7A797877
@00100360 00000000
@00100364 33323130
@00100368 37363534
@0010036C 42413938
@00100370 46454443
@00100374 4A494847
@00100378 4E4D4C4B
@0010037C 5251504F
@00100380 56555453
@00100384 5A595857
@00100388 00000000
